<svg width="23" height="22" viewBox="0 0 23 22" fill="none" xmlns="http://www.w3.org/2000/svg">
<path d="M17.1429 18.8572C17.1429 19.3259 16.7545 19.7143 16.2857 19.7143C15.817 19.7143 15.4286 19.3259 15.4286 18.8572C15.4286 18.3884 15.817 18 16.2857 18C16.7545 18 17.1429 18.3884 17.1429 18.8572ZM20.5714 18.8572C20.5714 19.3259 20.183 19.7143 19.7143 19.7143C19.2455 19.7143 18.8571 19.3259 18.8571 18.8572C18.8571 18.3884 19.2455 18 19.7143 18C20.183 18 20.5714 18.3884 20.5714 18.8572ZM22.2857 15.8572C22.2857 15.1473 21.7098 14.5714 21 14.5714H15.2813C14.9196 15.5625 13.9688 16.2857 12.8571 16.2857H9.4286C8.317 16.2857 7.3661 15.5625 7.0045 14.5714H1.2857C0.5759 14.5714 -7.62939e-09 15.1473 -7.62939e-09 15.8572V20.1429C-7.62939e-09 20.8527 0.5759 21.4286 1.2857 21.4286H21C21.7098 21.4286 22.2857 20.8527 22.2857 20.1429V15.8572ZM17.933 7.17859C18.067 6.87049 18 6.49549 17.7455 6.25449L11.7455 0.25447C11.5848 0.0803602 11.3571 3.34778e-07 11.1429 3.34778e-07C10.9286 3.34778e-07 10.7009 0.0803602 10.5402 0.25447L4.5402 6.25449C4.2857 6.49549 4.2188 6.87049 4.3527 7.17859C4.4866 7.49999 4.7946 7.71429 5.1429 7.71429H8.5714V13.7143C8.5714 14.1831 8.9598 14.5714 9.4286 14.5714H12.8571C13.3259 14.5714 13.7143 14.1831 13.7143 13.7143V7.71429H17.1429C17.4911 7.71429 17.7991 7.49999 17.933 7.17859Z" fill="#A0522D"/>
</svg>
