<svg width="21" height="24" viewBox="0 0 21 24" fill="none" xmlns="http://www.w3.org/2000/svg">
<path d="M13.7143 6.85713H20.0357C19.9152 6.66963 19.7946 6.50893 19.6607 6.37503L14.1964 0.91072C14.0625 0.77679 13.9018 0.65625 13.7143 0.53572V6.85713ZM12 7.28573V-2.06299e-07H1.28573C0.57593 -2.06299e-07 -3.03955e-07 0.57589 -3.03955e-07 1.28572V22.7143C-3.03955e-07 23.4241 0.57593 24 1.28573 24H19.2857C19.9955 24 20.5714 23.4241 20.5714 22.7143V8.57143H13.2857C12.5759 8.57143 12 7.99553 12 7.28573Z" fill="#A0522D"/>
</svg>
