<svg width="21" height="21" viewBox="0 0 21 21" fill="none" xmlns="http://www.w3.org/2000/svg">
<path d="M13.7143 10.2857C13.7143 12.1741 12.1741 13.7142 10.2857 13.7142C8.39733 13.7142 6.85713 12.1741 6.85713 10.2857C6.85713 8.3973 8.39733 6.8571 10.2857 6.8571C12.1741 6.8571 13.7143 8.3973 13.7143 10.2857ZM20.5714 8.8259C20.5714 8.5982 20.4107 8.3839 20.183 8.3437L17.7321 7.9687C17.5982 7.5267 17.4107 7.0848 17.183 6.6562C17.6384 6.0267 18.1339 5.4375 18.5893 4.8214C18.6562 4.7276 18.6964 4.6339 18.6964 4.5133C18.6964 4.4062 18.6696 4.2991 18.6027 4.2187C18.0402 3.4285 17.1027 2.5982 16.3928 1.9419C16.2991 1.8616 16.1785 1.808 16.058 1.808C15.9375 1.808 15.8169 1.8482 15.7366 1.9285L13.8348 3.3616C13.4464 3.1607 13.0446 3 12.6294 2.866L12.2544 0.4017C12.2277 0.1741 12.0134 4.66919e-07 11.7723 4.66919e-07H8.79913C8.55803 4.66919e-07 8.37053 0.1607 8.31693 0.375C8.10273 1.1785 8.02233 2.0491 7.92853 2.866C7.51343 3 7.09823 3.1741 6.70983 3.375L4.86163 1.9419C4.75443 1.8616 4.63393 1.808 4.51343 1.808C4.05803 1.808 2.25003 3.7633 1.92853 4.2053C1.86163 4.2991 1.80803 4.3928 1.80803 4.5133C1.80803 4.6339 1.86163 4.741 1.94193 4.8348C2.43753 5.4375 2.91963 6.0401 3.37503 6.683C3.16073 7.0848 2.98663 7.4866 2.85273 7.9151L0.36163 8.2901C0.16072 8.3303 -3.03955e-07 8.5714 -3.03955e-07 8.7723V11.7455C-3.03955e-07 11.9732 0.16072 12.1875 0.38843 12.2276L2.83933 12.5892C2.97323 13.0446 3.16073 13.4866 3.38843 13.9151C2.93303 14.5446 2.43753 15.1339 1.98213 15.75C1.91523 15.8437 1.87503 15.9375 1.87503 16.058C1.87503 16.1651 1.90183 16.2723 1.96873 16.366C2.53123 17.1428 3.46873 17.9732 4.17853 18.616C4.27233 18.7098 4.39283 18.7633 4.51343 18.7633C4.63393 18.7633 4.75443 18.7232 4.84823 18.6428L6.73663 17.2098C7.12503 17.4107 7.52683 17.5714 7.94193 17.7053L8.31693 20.1696C8.34373 20.3973 8.55803 20.5714 8.79913 20.5714H11.7723C12.0134 20.5714 12.2009 20.4107 12.2544 20.1964C12.4687 19.3928 12.5491 18.5223 12.6428 17.7053C13.058 17.5714 13.4732 17.3973 13.8616 17.1964L15.7098 18.6428C15.8169 18.7098 15.9375 18.7633 16.058 18.7633C16.5134 18.7633 18.3214 16.7946 18.6428 16.366C18.7232 16.2723 18.7634 16.1785 18.7634 16.058C18.7634 15.9375 18.7098 15.8169 18.6294 15.7232C18.1339 15.1205 17.6518 14.5312 17.1964 13.875C17.4107 13.4866 17.5714 13.0848 17.7187 12.6562L20.1964 12.2812C20.4107 12.241 20.5714 12 20.5714 11.7991V8.8259Z" fill="#A0522D"/>
</svg>
