<svg width="22" height="25" viewBox="0 0 22 25" version="1.1" xmlns="http://www.w3.org/2000/svg" xmlns:xlink="http://www.w3.org/1999/xlink">
<title>Icon_Pages</title>
<desc>Created using Figma</desc>
<g id="Canvas" transform="translate(331 -51)">
<g id="Icon_Pages">
<use xlink:href="#page" transform="translate(-340.101 43.013)" fill="#F2994A"/>
</g>
</g>
<defs>
<path id="page" d="M 23.3528 15.2857L 29.6742 15.2857C 29.5537 15.0982 29.4331 14.9375 29.2992 14.8036L 23.8349 9.33929C 23.701 9.20536 23.5403 9.08482 23.3528 8.96429L 23.3528 15.2857ZM 21.6385 15.7143L 21.6385 8.42857L 10.9242 8.42857C 10.2144 8.42857 9.63847 9.00446 9.63847 9.71429L 9.63847 31.1429C 9.63847 31.8527 10.2144 32.4286 10.9242 32.4286L 28.9242 32.4286C 29.634 32.4286 30.2099 31.8527 30.2099 31.1429L 30.2099 17L 22.9242 17C 22.2144 17 21.6385 16.4241 21.6385 15.7143Z"/>
</defs>
</svg>
