<svg width="22" height="22" viewBox="0 0 22 22" version="1.1" xmlns="http://www.w3.org/2000/svg" xmlns:xlink="http://www.w3.org/1999/xlink">
<title>Icon_Param&#195;&#168;tres</title>
<desc>Created using Figma</desc>
<g id="Canvas" transform="translate(333 -311)">
<g id="Icon_Param&#195;&#168;tres">
<use xlink:href="#parametres" transform="translate(-342.101 301.461)" fill="#F2994A"/>
</g>
</g>
<defs>
<path id="parametres" d="M 23.3528 20.4286C 23.3528 22.317 21.8126 23.8571 19.9242 23.8571C 18.0358 23.8571 16.4956 22.317 16.4956 20.4286C 16.4956 18.5402 18.0358 17 19.9242 17C 21.8126 17 23.3528 18.5402 23.3528 20.4286ZM 30.2099 18.9688C 30.2099 18.7411 30.0492 18.5268 29.8215 18.4866L 27.3706 18.1116C 27.2367 17.6696 27.0492 17.2277 26.8215 16.7991C 27.2769 16.1696 27.7724 15.5804 28.2278 14.9643C 28.2947 14.8705 28.3349 14.7768 28.3349 14.6562C 28.3349 14.5491 28.3081 14.442 28.2412 14.3616C 27.6787 13.5714 26.7412 12.7411 26.0313 12.0848C 25.9376 12.0045 25.817 11.9509 25.6965 11.9509C 25.576 11.9509 25.4554 11.9911 25.3751 12.0714L 23.4733 13.5045C 23.0849 13.3036 22.6831 13.1429 22.2679 13.0089L 21.8929 10.5446C 21.8662 10.317 21.6519 10.1429 21.4108 10.1429L 18.4376 10.1429C 18.1965 10.1429 18.009 10.3036 17.9554 10.5179C 17.7412 11.3214 17.6608 12.192 17.567 13.0089C 17.1519 13.1429 16.7367 13.317 16.3483 13.5179L 14.5001 12.0848C 14.3929 12.0045 14.2724 11.9509 14.1519 11.9509C 13.6965 11.9509 11.8885 13.9062 11.567 14.3482C 11.5001 14.442 11.4465 14.5357 11.4465 14.6562C 11.4465 14.7768 11.5001 14.8839 11.5804 14.9777C 12.076 15.5804 12.5581 16.183 13.0135 16.8259C 12.7992 17.2277 12.6251 17.6295 12.4912 18.058L 10.0001 18.433C 9.79919 18.4732 9.63847 18.7143 9.63847 18.9152L 9.63847 21.8884C 9.63847 22.1161 9.79919 22.3304 10.0269 22.3705L 12.4778 22.7321C 12.6117 23.1875 12.7992 23.6295 13.0269 24.058C 12.5715 24.6875 12.076 25.2768 11.6206 25.8929C 11.5537 25.9866 11.5135 26.0804 11.5135 26.2009C 11.5135 26.308 11.5403 26.4152 11.6072 26.5089C 12.1697 27.2857 13.1072 28.1161 13.817 28.7589C 13.9108 28.8527 14.0313 28.9062 14.1519 28.9062C 14.2724 28.9062 14.3929 28.8661 14.4867 28.7857L 16.3751 27.3527C 16.7635 27.5536 17.1653 27.7143 17.5804 27.8482L 17.9554 30.3125C 17.9822 30.5402 18.1965 30.7143 18.4376 30.7143L 21.4108 30.7143C 21.6519 30.7143 21.8394 30.5536 21.8929 30.3393C 22.1072 29.5357 22.1876 28.6652 22.2813 27.8482C 22.6965 27.7143 23.1117 27.5402 23.5001 27.3393L 25.3483 28.7857C 25.4554 28.8527 25.576 28.9062 25.6965 28.9062C 26.1519 28.9062 27.9599 26.9375 28.2813 26.5089C 28.3617 26.4152 28.4019 26.3214 28.4019 26.2009C 28.4019 26.0804 28.3483 25.9598 28.2679 25.8661C 27.7724 25.2634 27.2903 24.6741 26.8349 24.0179C 27.0492 23.6295 27.2099 23.2277 27.3572 22.7991L 29.8349 22.4241C 30.0492 22.3839 30.2099 22.1429 30.2099 21.942L 30.2099 18.9688Z"/>
</defs>
</svg>
