<svg width="21" height="18" viewBox="0 0 21 18" fill="none" xmlns="http://www.w3.org/2000/svg">
<path d="M20.5714 14.5715C20.5714 14.1027 20.183 13.7143 19.7143 13.7143H0.85713C0.38843 13.7143 -3.03955e-07 14.1027 -3.03955e-07 14.5715V16.2858C-3.03955e-07 16.7545 0.38843 17.1429 0.85713 17.1429H19.7143C20.183 17.1429 20.5714 16.7545 20.5714 16.2858V14.5715ZM20.5714 7.7143C20.5714 7.2456 20.183 6.8572 19.7143 6.8572H0.85713C0.38843 6.8572 -3.03955e-07 7.2456 -3.03955e-07 7.7143V9.4286C-3.03955e-07 9.8974 0.38843 10.2858 0.85713 10.2858H19.7143C20.183 10.2858 20.5714 9.8974 20.5714 9.4286V7.7143ZM20.5714 0.8572C20.5714 0.3884 20.183 -4.66919e-07 19.7143 -4.66919e-07H0.85713C0.38843 -4.66919e-07 -3.03955e-07 0.3884 -3.03955e-07 0.8572V2.5715C-3.03955e-07 3.0402 0.38843 3.4286 0.85713 3.4286H19.7143C20.183 3.4286 20.5714 3.0402 20.5714 2.5715V0.8572Z" fill="#EE74B2"/>
</svg>
