<svg width="26" height="24" viewBox="0 0 26 24" fill="none" xmlns="http://www.w3.org/2000/svg">
<path d="M7.94201 12C7.24561 10.9955 6.85721 9.79023 6.85721 8.57143C6.85721 8.27683 6.88401 7.98213 6.92421 7.68753C6.34831 7.88843 5.75901 7.99553 5.14291 7.99553C3.33491 7.99553 1.94204 6.85713 1.66079 6.85713C-0.0400977 6.85713 8.19004e-05 10.5 8.19004e-05 11.5848C8.19004e-05 13.0714 1.259 13.7143 2.59829 13.7143H4.39291C5.29021 12.6428 6.54921 12.0402 7.94201 12ZM22.2858 20.5312C22.2858 17.5044 21.576 12.8571 17.6519 12.8571C17.1965 12.8571 15.5358 14.7187 12.8572 14.7187C10.1786 14.7187 8.51791 12.8571 8.06261 12.8571C4.13851 12.8571 3.42861 17.5044 3.42861 20.5312C3.42861 22.7009 4.86171 24 7.00451 24H18.7099C20.8527 24 22.2858 22.7009 22.2858 20.5312ZM8.57151 3.42853C8.57151 1.54018 7.03131 -2.06299e-07 5.14291 -2.06299e-07C3.25451 -2.06299e-07 1.71436 1.54018 1.71436 3.42853C1.71436 5.31693 3.25451 6.85713 5.14291 6.85713C7.03131 6.85713 8.57151 5.31693 8.57151 3.42853ZM18.0001 8.57143C18.0001 5.73213 15.6965 3.42853 12.8572 3.42853C10.0179 3.42853 7.71441 5.73213 7.71441 8.57143C7.71441 11.4107 10.0179 13.7143 12.8572 13.7143C15.6965 13.7143 18.0001 11.4107 18.0001 8.57143ZM25.7144 11.5848C25.7144 10.5 25.7545 6.85713 24.0536 6.85713C23.7724 6.85713 22.3795 7.99553 20.5715 7.99553C19.9554 7.99553 19.3661 7.88843 18.7902 7.68753C18.8304 7.98213 18.8572 8.27683 18.8572 8.57143C18.8572 9.79023 18.4688 10.9955 17.7724 12C19.1652 12.0402 20.4242 12.6428 21.3215 13.7143H23.1161C24.4554 13.7143 25.7144 13.0714 25.7144 11.5848ZM24.0001 3.42853C24.0001 1.54018 22.4599 -2.06299e-07 20.5715 -2.06299e-07C18.6831 -2.06299e-07 17.1429 1.54018 17.1429 3.42853C17.1429 5.31693 18.6831 6.85713 20.5715 6.85713C22.4599 6.85713 24.0001 5.31693 24.0001 3.42853Z" fill="#EE74B2"/>
</svg>
