<svg width="22" height="33" viewBox="0 0 22 33" version="1.1" xmlns="http://www.w3.org/2000/svg" xmlns:xlink="http://www.w3.org/1999/xlink">
<title>Arrow_Right</title>
<desc>Created using Figma</desc>
<g id="Canvas" transform="translate(-1523 -494)">
<g id="Arrow_Right">
<use xlink:href="#right-arrow" transform="translate(1501.67 478.837)" fill="#FFFCFC"/>
</g>
</g>
<defs>
<path id="right-arrow" d="M 42.7226 32.7612C 43.2248 32.2589 43.2248 31.4554 42.7226 30.9531L 27.8163 16.0469C 27.3141 15.5446 26.5105 15.5446 26.0083 16.0469L 22.6735 19.3817C 22.1712 19.8839 22.1712 20.6875 22.6735 21.1897L 33.3409 31.8571L 22.6735 42.5246C 22.1712 43.0268 22.1712 43.8304 22.6735 44.3326L 26.0083 47.6674C 26.5105 48.1696 27.3141 48.1696 27.8163 47.6674L 42.7226 32.7612Z"/>
</defs>
</svg>
